<?xml version="1.0" encoding="utf-8"?>
<!-- Generator: Adobe Illustrator 15.0.0, SVG Export Plug-In . SVG Version: 6.00 Build 0)  -->
<!DOCTYPE svg PUBLIC "-//W3C//DTD SVG 1.1//EN" "http://www.w3.org/Graphics/SVG/1.1/DTD/svg11.dtd">
<svg version="1.1" id="Calque_1" xmlns="http://www.w3.org/2000/svg" xmlns:xlink="http://www.w3.org/1999/xlink" x="0px" y="0px"
	 width="566.93px" height="375.82px" viewBox="0 0 566.93 375.82" enable-background="new 0 0 566.93 375.82" xml:space="preserve">
<g>
	<g>
		<radialGradient id="SVGID_1_" cx="164.7617" cy="229.5781" r="384.3668" gradientUnits="userSpaceOnUse">
			<stop  offset="0" style="stop-color:#6F003A"/>
			<stop  offset="0.4969" style="stop-color:#BE0C49"/>
			<stop  offset="1" style="stop-color:#6F003A"/>
		</radialGradient>
		<path fill="url(#SVGID_1_)" d="M165.831,172.598c4.56,0,8.362,0.524,11.402,1.56c3.045,1.038,5.48,2.524,7.312,4.458
			c1.829,1.935,3.125,4.285,3.887,7.045c0.758,2.766,1.14,5.844,1.14,9.229v32.141c-2.211,0.481-5.285,1.05-9.228,1.703
			c-3.938,0.66-8.71,0.988-14.305,0.988c-3.521,0-6.727-0.309-9.591-0.934c-2.866-0.621-5.335-1.639-7.415-3.055
			c-2.068-1.417-3.658-3.27-4.764-5.549c-1.105-2.277-1.661-5.079-1.661-8.397c0-3.179,0.636-5.873,1.921-8.083
			c1.276-2.214,2.986-3.979,5.132-5.291c2.141-1.311,4.596-2.262,7.358-2.854c2.762-0.583,5.631-0.873,8.608-0.873
			c1.998,0,3.78,0.082,5.336,0.254c1.553,0.172,2.811,0.396,3.778,0.678v-1.459c0-2.622-0.791-4.727-2.381-6.318
			c-1.589-1.589-4.354-2.385-8.294-2.385c-2.624,0-5.217,0.189-7.771,0.566c-2.557,0.385-4.774,0.919-6.635,1.611l-1.974-12.438
			c0.9-0.279,2.022-0.571,3.369-0.886c1.35-0.308,2.816-0.583,4.41-0.832c1.586-0.237,3.266-0.445,5.023-0.619
			C162.254,172.689,164.031,172.598,165.831,172.598z M167.076,217.799c1.518,0,2.971-0.033,4.352-0.104
			c1.387-0.065,2.484-0.174,3.314-0.312v-11.711c-0.619-0.139-1.551-0.276-2.792-0.414c-1.25-0.138-2.385-0.211-3.422-0.211
			c-1.452,0-2.818,0.088-4.098,0.262c-1.282,0.172-2.401,0.503-3.367,0.986c-0.97,0.482-1.727,1.137-2.283,1.965
			c-0.554,0.832-0.825,1.869-0.825,3.107c0,2.426,0.811,4.1,2.432,5.029C162.012,217.335,164.242,217.799,167.076,217.799z"/>
		<radialGradient id="SVGID_2_" cx="164.7588" cy="229.5771" r="384.3804" gradientUnits="userSpaceOnUse">
			<stop  offset="0" style="stop-color:#6F003A"/>
			<stop  offset="0.4969" style="stop-color:#BE0C49"/>
			<stop  offset="1" style="stop-color:#6F003A"/>
		</radialGradient>
		<path fill="url(#SVGID_2_)" d="M210.765,219.074c2.424,0,4.144-0.234,5.149-0.717c1.009-0.471,1.517-1.388,1.517-2.75
			c0-1.064-0.657-1.998-1.959-2.803c-1.302-0.799-3.29-1.695-5.95-2.709c-2.078-0.768-3.959-1.57-5.643-2.397
			c-1.691-0.827-3.128-1.821-4.311-2.978c-1.188-1.151-2.104-2.529-2.753-4.129c-0.655-1.604-0.981-3.521-0.981-5.781
			c0-4.377,1.63-7.846,4.888-10.391c3.259-2.552,7.73-3.822,13.417-3.822c2.848,0,5.573,0.248,8.178,0.748
			c2.605,0.506,4.678,1.057,6.219,1.652l-2.31,10.304c-1.541-0.527-3.212-1.007-5.021-1.42s-3.836-0.622-6.086-0.622
			c-4.15,0-6.216,1.154-6.216,3.465c0,0.531,0.082,1.006,0.259,1.422c0.179,0.416,0.532,0.817,1.066,1.197
			c0.537,0.387,1.256,0.803,2.18,1.248c0.921,0.452,2.087,0.947,3.507,1.48c2.91,1.076,5.305,2.131,7.201,3.183
			c1.896,1.045,3.394,2.173,4.486,3.38c1.101,1.213,1.872,2.561,2.314,4.039c0.443,1.475,0.663,3.192,0.663,5.143
			c0,4.609-1.734,8.102-5.195,10.465c-3.469,2.359-8.374,3.541-14.706,3.541c-4.148,0-7.598-0.353-10.355-1.066
			c-2.752-0.711-4.66-1.301-5.732-1.779l2.226-10.747c2.247,0.888,4.56,1.584,6.933,2.09
			C206.108,218.822,208.452,219.074,210.765,219.074z"/>
		<radialGradient id="SVGID_3_" cx="164.7568" cy="229.5762" r="384.3799" gradientUnits="userSpaceOnUse">
			<stop  offset="0" style="stop-color:#6F003A"/>
			<stop  offset="0.4969" style="stop-color:#BE0C49"/>
			<stop  offset="1" style="stop-color:#6F003A"/>
		</radialGradient>
		<path fill="url(#SVGID_3_)" d="M306.133,180.598c3.913,0,7.169,0.445,9.771,1.331c2.609,0.89,4.697,2.167,6.265,3.817
			c1.574,1.664,2.685,3.676,3.338,6.044c0.648,2.368,0.975,5.009,0.975,7.911v27.551c-1.894,0.411-4.532,0.899-7.907,1.461
			c-3.376,0.561-7.469,0.846-12.263,0.846c-3.023,0-5.767-0.27-8.22-0.803c-2.462-0.531-4.578-1.404-6.354-2.619
			c-1.78-1.212-3.143-2.799-4.09-4.753c-0.948-1.95-1.423-4.358-1.423-7.198c0-2.724,0.552-5.033,1.647-6.935
			c1.096-1.89,2.562-3.403,4.402-4.523c1.836-1.127,3.936-1.944,6.306-2.45c2.365-0.5,4.825-0.75,7.375-0.75
			c1.715,0,3.241,0.075,4.571,0.219c1.338,0.149,2.414,0.34,3.251,0.574v-1.245c0-2.247-0.685-4.054-2.044-5.421
			c-1.369-1.359-3.737-2.041-7.111-2.041c-2.252,0-4.475,0.164-6.664,0.491c-2.191,0.327-4.09,0.781-5.684,1.374l-1.691-10.66
			c0.768-0.234,1.734-0.488,2.889-0.754c1.153-0.271,2.411-0.504,3.773-0.719c1.361-0.201,2.801-0.38,4.31-0.525
			C303.067,180.668,304.592,180.598,306.133,180.598z M307.199,219.338c1.304,0,2.547-0.024,3.729-0.085
			c1.188-0.058,2.136-0.152,2.85-0.271v-10.041c-0.535-0.121-1.335-0.236-2.407-0.357c-1.066-0.111-2.041-0.17-2.929-0.17
			c-1.243,0-2.417,0.07-3.515,0.218c-1.094,0.146-2.049,0.431-2.886,0.842c-0.825,0.416-1.478,0.981-1.947,1.688
			c-0.481,0.711-0.716,1.604-0.716,2.67c0,2.07,0.694,3.505,2.09,4.306C302.862,218.941,304.766,219.338,307.199,219.338z"/>
		<radialGradient id="SVGID_4_" cx="164.7568" cy="229.5811" r="384.3783" gradientUnits="userSpaceOnUse">
			<stop  offset="0" style="stop-color:#6F003A"/>
			<stop  offset="0.4969" style="stop-color:#BE0C49"/>
			<stop  offset="1" style="stop-color:#6F003A"/>
		</radialGradient>
		<path fill="url(#SVGID_4_)" d="M333.588,170.2l13.242-2.136v13.777h15.904v11.018H346.83v16.436c0,2.786,0.492,5.012,1.467,6.666
			c0.975,1.662,2.945,2.488,5.911,2.488c1.42,0,2.886-0.13,4.397-0.4c1.514-0.267,2.886-0.635,4.129-1.105l1.869,10.309
			c-1.599,0.648-3.374,1.211-5.33,1.686c-1.96,0.475-4.359,0.711-7.203,0.711c-3.609,0-6.606-0.488-8.965-1.473
			c-2.38-0.975-4.271-2.334-5.696-4.083c-1.422-1.746-2.416-3.868-2.975-6.356c-0.566-2.486-0.847-5.244-0.847-8.263V170.2z"/>
		<radialGradient id="SVGID_5_" cx="164.7598" cy="229.5762" r="384.374" gradientUnits="userSpaceOnUse">
			<stop  offset="0" style="stop-color:#6F003A"/>
			<stop  offset="0.4969" style="stop-color:#BE0C49"/>
			<stop  offset="1" style="stop-color:#6F003A"/>
		</radialGradient>
		<path fill="url(#SVGID_5_)" d="M387.616,180.598c3.913,0,7.172,0.445,9.776,1.331c2.603,0.89,4.697,2.167,6.268,3.817
			c1.567,1.664,2.678,3.676,3.33,6.044c0.648,2.368,0.978,5.009,0.978,7.911v27.551c-1.896,0.411-4.53,0.899-7.907,1.461
			c-3.379,0.561-7.464,0.846-12.268,0.846c-3.017,0-5.757-0.27-8.217-0.803c-2.457-0.531-4.576-1.404-6.352-2.619
			c-1.78-1.212-3.14-2.799-4.088-4.753c-0.948-1.95-1.422-4.358-1.422-7.198c0-2.724,0.546-5.033,1.64-6.935
			c1.098-1.89,2.563-3.403,4.399-4.523c1.836-1.127,3.94-1.944,6.315-2.45c2.363-0.5,4.825-0.75,7.37-0.75
			c1.72,0,3.244,0.075,4.579,0.219c1.333,0.149,2.409,0.34,3.238,0.574v-1.245c0-2.247-0.68-4.054-2.041-5.421
			c-1.362-1.359-3.729-2.041-7.106-2.041c-2.257,0-4.475,0.164-6.664,0.491c-2.201,0.327-4.09,0.781-5.691,1.374l-1.684-10.66
			c0.765-0.234,1.732-0.488,2.884-0.754c1.156-0.271,2.411-0.504,3.78-0.719c1.361-0.201,2.796-0.38,4.308-0.525
			C384.549,180.668,386.073,180.598,387.616,180.598z M388.686,219.338c1.301,0,2.544-0.024,3.729-0.085
			c1.183-0.058,2.136-0.152,2.842-0.271v-10.041c-0.529-0.121-1.333-0.236-2.395-0.357c-1.066-0.111-2.046-0.17-2.934-0.17
			c-1.243,0-2.417,0.07-3.508,0.218c-1.096,0.146-2.063,0.431-2.896,0.842c-0.826,0.416-1.478,0.981-1.946,1.688
			c-0.479,0.711-0.714,1.604-0.714,2.67c0,2.07,0.697,3.505,2.09,4.306C384.344,218.941,386.252,219.338,388.686,219.338z"/>
		<radialGradient id="SVGID_6_" cx="164.7773" cy="229.5771" r="384.3454" gradientUnits="userSpaceOnUse">
			<stop  offset="0" style="stop-color:#6F003A"/>
			<stop  offset="0.4969" style="stop-color:#BE0C49"/>
			<stop  offset="1" style="stop-color:#6F003A"/>
		</radialGradient>
		<path fill="url(#SVGID_6_)" d="M428.941,219.074c2.428,0,4.146-0.234,5.149-0.717c1.006-0.471,1.512-1.388,1.512-2.75
			c0-1.064-0.651-1.998-1.954-2.803c-1.302-0.799-3.29-1.695-5.953-2.709c-2.073-0.768-3.957-1.57-5.643-2.397
			c-1.688-0.827-3.128-1.821-4.311-2.978c-1.188-1.151-2.102-2.529-2.755-4.129c-0.655-1.604-0.979-3.521-0.979-5.781
			c0-4.377,1.633-7.846,4.888-10.391c3.256-2.552,7.73-3.822,13.42-3.822c2.842,0,5.57,0.248,8.171,0.748
			c2.609,0.506,4.682,1.057,6.226,1.652l-2.31,10.304c-1.541-0.527-3.215-1.007-5.024-1.42c-1.807-0.413-3.836-0.622-6.083-0.622
			c-4.15,0-6.221,1.154-6.221,3.465c0,0.531,0.089,1.006,0.266,1.422s0.524,0.817,1.064,1.197c0.537,0.387,1.26,0.803,2.177,1.248
			c0.921,0.452,2.092,0.947,3.51,1.48c2.902,1.076,5.302,2.131,7.198,3.183c1.894,1.045,3.391,2.173,4.491,3.38
			c1.094,1.213,1.867,2.561,2.308,4.039c0.445,1.475,0.665,3.192,0.665,5.143c0,4.609-1.731,8.102-5.195,10.465
			c-3.466,2.359-8.366,3.541-14.706,3.541c-4.15,0-7.603-0.353-10.353-1.066c-2.76-0.711-4.666-1.301-5.732-1.779l2.221-10.747
			c2.249,0.888,4.56,1.584,6.927,2.09C424.292,218.822,426.626,219.074,428.941,219.074z"/>
		<radialGradient id="SVGID_7_" cx="164.7305" cy="229.5811" r="384.41" gradientUnits="userSpaceOnUse">
			<stop  offset="0" style="stop-color:#6F003A"/>
			<stop  offset="0.4969" style="stop-color:#BE0C49"/>
			<stop  offset="1" style="stop-color:#6F003A"/>
		</radialGradient>
		<path fill="url(#SVGID_7_)" d="M494.074,226.977c-2.255,0.657-5.157,1.265-8.711,1.823c-3.555,0.565-7.287,0.849-11.193,0.849
			c-3.972,0-7.273-0.531-9.912-1.604c-2.635-1.068-4.722-2.562-6.263-4.484c-1.54-1.928-2.636-4.223-3.289-6.887
			c-0.651-2.668-0.979-5.602-0.979-8.797v-26.035h13.245v24.434c0,4.268,0.559,7.347,1.688,9.245
			c1.122,1.894,3.23,2.837,6.308,2.837c0.948,0,1.957-0.038,3.021-0.133c1.066-0.087,2.015-0.188,2.845-0.31v-36.073h13.24V226.977z
			"/>
		<radialGradient id="SVGID_8_" cx="164.7412" cy="229.5811" r="384.391" gradientUnits="userSpaceOnUse">
			<stop  offset="0" style="stop-color:#6F003A"/>
			<stop  offset="0.4969" style="stop-color:#BE0C49"/>
			<stop  offset="1" style="stop-color:#6F003A"/>
		</radialGradient>
		<path fill="url(#SVGID_8_)" d="M502.072,183.438c2.255-0.652,5.154-1.26,8.708-1.816c3.558-0.568,7.288-0.852,11.196-0.852
			c3.965,0,7.271,0.521,9.908,1.561c2.631,1.035,4.719,2.496,6.264,4.393c1.543,1.904,2.635,4.152,3.287,6.756
			c0.653,2.607,0.982,5.51,0.982,8.713v26.393h-13.243v-24.797c0-4.26-0.565-7.285-1.688-9.062
			c-1.127-1.778-3.229-2.668-6.308-2.668c-0.95,0-1.959,0.048-3.021,0.133c-1.069,0.094-2.018,0.193-2.845,0.312v36.083h-13.241
			V183.438z"/>
		<radialGradient id="SVGID_9_" cx="164.7568" cy="229.5811" r="384.3829" gradientUnits="userSpaceOnUse">
			<stop  offset="0" style="stop-color:#6F003A"/>
			<stop  offset="0.4969" style="stop-color:#BE0C49"/>
			<stop  offset="1" style="stop-color:#6F003A"/>
		</radialGradient>
		<path fill="url(#SVGID_9_)" d="M278.041,222.08c1.569-2.121,2.806-4.625,3.669-7.438c0.863-2.803,1.296-5.991,1.296-9.475
			c0-4.25-0.655-8.049-1.951-11.291c-1.302-3.25-3.105-6.027-5.38-8.245c-2.271-2.228-4.963-3.916-8.013-5.028
			c-3.021-1.102-6.279-1.66-9.688-1.66c-3.309,0-6.512,0.559-9.508,1.66c-3.021,1.112-5.716,2.801-8.007,5.023
			c-2.296,2.223-4.139,4.994-5.49,8.243c-1.338,3.243-2.024,7.044-2.024,11.298c0,3.824,0.531,7.291,1.589,10.312
			c1.062,3.03,2.55,5.667,4.438,7.842c1.884,2.185,4.144,3.938,6.702,5.218c2.407,1.199,5.041,2.021,7.835,2.433
			c0.578,1.843,1.378,3.507,2.392,4.948c1.118,1.582,2.646,2.939,4.538,4.021c1.857,1.06,4.155,1.909,6.82,2.511
			c2.635,0.59,5.842,0.963,9.525,1.105l0.609,0.024l2.678-9.519l-0.945-0.07c-1.814-0.135-3.565-0.297-5.205-0.488
			c-1.565-0.186-2.954-0.461-4.115-0.814c-1.132-0.352-2.075-0.796-2.793-1.32c-0.434-0.324-0.752-0.695-0.98-1.128
			c2.286-0.636,4.427-1.589,6.357-2.835C274.567,225.999,276.471,224.211,278.041,222.08z M269.292,211.418
			c-0.554,1.812-1.356,3.392-2.401,4.688c-1.014,1.285-2.294,2.289-3.796,2.982c-1.504,0.699-3.229,1.053-5.12,1.053
			c-1.936,0-3.67-0.354-5.152-1.047c-1.471-0.699-2.745-1.703-3.769-2.988c-1.032-1.289-1.838-2.875-2.392-4.697
			c-0.557-1.833-0.845-3.936-0.845-6.24c0-2.256,0.288-4.349,0.845-6.204c0.559-1.845,1.359-3.437,2.392-4.735
			c1.026-1.282,2.298-2.303,3.778-3.021c1.476-0.716,3.215-1.081,5.143-1.081c1.892,0,3.616,0.355,5.12,1.058
			c1.502,0.693,2.782,1.692,3.796,2.975c1.045,1.297,1.848,2.895,2.401,4.727c0.562,1.869,0.842,3.979,0.842,6.283
			S269.854,209.575,269.292,211.418z"/>
	</g>
	<g>
		<g>
			<g>
				<defs>
					<path id="SVGID_10_" d="M104.411,204.573c0,22.995,0,41.62-41.615,41.62c-22.983,0-48.646-24.441-48.646-47.428
						c0-22.98,27.132-43.607,50.114-43.607C87.252,155.158,104.411,181.6,104.411,204.573z"/>
				</defs>
				<clipPath id="SVGID_11_">
					<use xlink:href="#SVGID_10_"  overflow="visible"/>
				</clipPath>
				<rect x="14.152" y="155.152" clip-path="url(#SVGID_11_)" fill="#6F003A" width="90.264" height="91.041"/>
				<path clip-path="url(#SVGID_11_)" fill="#6F003A" d="M104.607,200.674c0,25.029-20.292,45.326-45.326,45.326
					s-45.325-20.297-45.325-45.326s20.291-45.325,45.325-45.325S104.607,175.645,104.607,200.674z"/>
				<path clip-path="url(#SVGID_11_)" fill="#70003A" d="M104.017,200.674c0,24.701-20.032,44.733-44.735,44.733
					c-24.705,0-44.732-20.032-44.732-44.733c0-24.705,20.027-44.732,44.732-44.732C83.984,155.941,104.017,175.969,104.017,200.674z
					"/>
				<path clip-path="url(#SVGID_11_)" fill="#71013A" d="M103.419,200.674c0,24.379-19.764,44.133-44.138,44.133
					c-24.379,0-44.141-19.754-44.141-44.133s19.762-44.135,44.141-44.135C83.655,156.539,103.419,176.295,103.419,200.674z"/>
				<path clip-path="url(#SVGID_11_)" fill="#72013A" d="M102.826,200.674c0,24.048-19.5,43.543-43.545,43.543
					c-24.05,0-43.545-19.495-43.545-43.543c0-24.05,19.495-43.54,43.545-43.54C83.326,157.134,102.826,176.624,102.826,200.674z"/>
				<path clip-path="url(#SVGID_11_)" fill="#73023A" d="M102.234,200.674c0,23.724-19.232,42.948-42.953,42.948
					s-42.947-19.225-42.947-42.948c0-23.721,19.227-42.952,42.947-42.952S102.234,176.953,102.234,200.674z"/>
				<circle clip-path="url(#SVGID_11_)" fill="#74023A" cx="59.28" cy="200.674" r="42.356"/>
				<circle clip-path="url(#SVGID_11_)" fill="#75023A" cx="59.28" cy="200.674" r="41.761"/>
				<path clip-path="url(#SVGID_11_)" fill="#76033A" d="M100.451,200.674c0,22.736-18.436,41.168-41.17,41.168
					c-22.741,0-41.165-18.432-41.165-41.168s18.424-41.168,41.165-41.168C82.016,159.506,100.451,177.938,100.451,200.674z"/>
				<path clip-path="url(#SVGID_11_)" fill="#77033A" d="M99.854,200.674c0,22.408-18.167,40.575-40.572,40.575
					c-22.41,0-40.575-18.167-40.575-40.575c0-22.407,18.165-40.572,40.575-40.572C81.687,160.102,99.854,178.267,99.854,200.674z"/>
				<path clip-path="url(#SVGID_11_)" fill="#78043A" d="M99.259,200.674c0,22.084-17.901,39.98-39.978,39.98
					c-22.081,0-39.979-17.896-39.979-39.98c0-22.08,17.898-39.982,39.979-39.982C81.357,160.691,99.259,178.594,99.259,200.674z"/>
				<path clip-path="url(#SVGID_11_)" fill="#79043A" d="M98.669,200.674c0,21.755-17.638,39.383-39.388,39.383
					c-21.752,0-39.383-17.628-39.383-39.383c0-21.752,17.631-39.383,39.383-39.383C81.031,161.291,98.669,178.922,98.669,200.674z"
					/>
				<path clip-path="url(#SVGID_11_)" fill="#7A043A" d="M98.074,200.674c0,21.426-17.365,38.791-38.793,38.791
					c-21.423,0-38.792-17.365-38.792-38.791c0-21.423,17.369-38.792,38.792-38.792C80.709,161.882,98.074,179.251,98.074,200.674z"
					/>
				<path clip-path="url(#SVGID_11_)" fill="#7B053A" d="M97.483,200.674c0,21.095-17.103,38.195-38.202,38.195
					c-21.094,0-38.197-17.101-38.197-38.195c0-21.096,17.104-38.199,38.197-38.199C80.381,162.475,97.483,179.578,97.483,200.674z"
					/>
				<path clip-path="url(#SVGID_11_)" fill="#7D063A" d="M96.289,200.674c0,20.437-16.564,37.01-37.008,37.01
					c-20.438,0-37.01-16.573-37.01-37.01c0-20.441,16.571-37.007,37.01-37.007C79.725,163.667,96.289,180.232,96.289,200.674z"/>
				<path clip-path="url(#SVGID_11_)" fill="#7E063A" d="M95.701,200.674c0,20.109-16.308,36.415-36.42,36.415
					c-20.109,0-36.414-16.306-36.414-36.415s16.305-36.417,36.414-36.417C79.394,164.257,95.701,180.564,95.701,200.674z"/>
				<path clip-path="url(#SVGID_11_)" fill="#7F063A" d="M95.099,200.674c0,19.781-16.034,35.818-35.817,35.818
					c-19.78,0-35.824-16.037-35.824-35.818c0-19.783,16.044-35.816,35.824-35.816C79.064,164.857,95.099,180.891,95.099,200.674z"/>
				<path clip-path="url(#SVGID_11_)" fill="#80073A" d="M94.506,200.674c0,19.452-15.771,35.225-35.225,35.225
					c-19.457,0-35.229-15.772-35.229-35.225c0-19.457,15.772-35.222,35.229-35.222C78.735,165.452,94.506,181.217,94.506,200.674z"
					/>
				<path clip-path="url(#SVGID_11_)" fill="#81073A" d="M93.918,200.674c0,19.123-15.512,34.63-34.637,34.63
					c-19.133,0-34.632-15.507-34.632-34.63c0-19.127,15.499-34.635,34.632-34.635C78.406,166.039,93.918,181.547,93.918,200.674z"/>
				<ellipse clip-path="url(#SVGID_11_)" fill="#82083A" cx="59.279" cy="200.674" rx="34.037" ry="34.043"/>
				<path clip-path="url(#SVGID_11_)" fill="#890A3B" d="M89.756,200.674c0,16.835-13.646,30.473-30.475,30.473
					c-16.832,0-30.474-13.638-30.474-30.473c0-16.834,13.642-30.474,30.474-30.474C76.109,170.2,89.756,183.84,89.756,200.674z"/>
				<path clip-path="url(#SVGID_11_)" fill="#8A0A3B" d="M89.163,200.674c0,16.502-13.383,29.882-29.882,29.882
					c-16.503,0-29.879-13.38-29.879-29.882c0-16.503,13.376-29.881,29.879-29.881C75.78,170.793,89.163,184.171,89.163,200.674z"/>
				<path clip-path="url(#SVGID_11_)" fill="#8B0B3B" d="M88.565,200.674c0,16.175-13.104,29.285-29.284,29.285
					c-16.174,0-29.291-13.11-29.291-29.285c0-16.176,13.117-29.283,29.291-29.283C75.461,171.391,88.565,184.498,88.565,200.674z"/>
				<circle clip-path="url(#SVGID_11_)" fill="#8C0B3B" cx="59.278" cy="200.674" r="28.693"/>
				<path clip-path="url(#SVGID_11_)" fill="#8D0B3B" d="M87.381,200.674c0,15.517-12.58,28.097-28.1,28.097
					c-15.519,0-28.099-12.58-28.099-28.097c0-15.521,12.58-28.099,28.099-28.099C74.801,172.575,87.381,185.152,87.381,200.674z"/>
				<path clip-path="url(#SVGID_11_)" fill="#8E0C3B" d="M86.783,200.674c0,15.188-12.312,27.5-27.502,27.5
					c-15.189,0-27.506-12.312-27.506-27.5c0-15.191,12.316-27.501,27.506-27.501C74.472,173.173,86.783,185.482,86.783,200.674z"/>
				<path clip-path="url(#SVGID_11_)" fill="#8F0C3B" d="M86.188,200.674c0,14.859-12.045,26.912-26.906,26.912
					c-14.858,0-26.911-12.053-26.911-26.912c0-14.863,12.053-26.908,26.911-26.908C74.143,173.766,86.188,185.811,86.188,200.674z"
					/>
				<path clip-path="url(#SVGID_11_)" fill="#900D3B" d="M85.598,200.674c0,14.532-11.782,26.312-26.316,26.312
					c-14.529,0-26.313-11.78-26.313-26.312c0-14.534,11.784-26.316,26.313-26.316C73.815,174.357,85.598,186.14,85.598,200.674z"/>
				<path clip-path="url(#SVGID_11_)" fill="#910D3B" d="M85,200.674c0,14.203-11.513,25.725-25.719,25.725
					c-14.205,0-25.726-11.521-25.726-25.725c0-14.205,11.521-25.721,25.726-25.721C73.487,174.953,85,186.469,85,200.674z"/>
				<path clip-path="url(#SVGID_11_)" fill="#920D3B" d="M84.405,200.674c0,13.877-11.247,25.129-25.124,25.129
					c-13.881,0-25.131-11.252-25.131-25.129c0-13.873,11.25-25.131,25.131-25.131C73.158,175.543,84.405,186.801,84.405,200.674z"/>
				<path clip-path="url(#SVGID_11_)" fill="#930E3B" d="M83.812,200.674c0,13.553-10.983,24.531-24.531,24.531
					c-13.553,0-24.533-10.979-24.533-24.531c0-13.55,10.98-24.533,24.533-24.533C72.829,176.141,83.812,187.124,83.812,200.674z"/>
				<path clip-path="url(#SVGID_11_)" fill="#940E3B" d="M83.215,200.674c0,13.227-10.715,23.941-23.934,23.941
					c-13.224,0-23.941-10.715-23.941-23.941c0-13.221,10.718-23.938,23.941-23.938C72.5,176.735,83.215,187.453,83.215,200.674z"/>
				<path clip-path="url(#SVGID_11_)" fill="#950F3B" d="M82.623,200.674c0,12.893-10.447,23.349-23.342,23.349
					s-23.346-10.456-23.346-23.349c0-12.892,10.451-23.348,23.346-23.348S82.623,187.782,82.623,200.674z"/>
				<path clip-path="url(#SVGID_11_)" fill="#960F3B" d="M82.032,200.674c0,12.568-10.186,22.752-22.751,22.752
					s-22.748-10.184-22.748-22.752c0-12.562,10.183-22.75,22.748-22.75S82.032,188.111,82.032,200.674z"/>
				<path clip-path="url(#SVGID_11_)" fill="#970F3B" d="M81.438,200.674c0,12.236-9.92,22.158-22.156,22.158
					c-12.239,0-22.16-9.922-22.16-22.158c0-12.234,9.921-22.156,22.16-22.156C71.518,178.518,81.438,188.439,81.438,200.674z"/>
				<path clip-path="url(#SVGID_11_)" fill="#98103B" d="M80.845,200.674c0,11.908-9.658,21.564-21.563,21.564
					c-11.912,0-21.565-9.656-21.565-21.564c0-11.904,9.653-21.565,21.565-21.565C71.187,179.108,80.845,188.77,80.845,200.674z"/>
				<path clip-path="url(#SVGID_11_)" fill="#99103B" d="M80.247,200.674c0,11.579-9.39,20.967-20.966,20.967
					c-11.583,0-20.973-9.388-20.973-20.967c0-11.578,9.39-20.969,20.973-20.969C70.857,179.705,80.247,189.096,80.247,200.674z"/>
				<path clip-path="url(#SVGID_11_)" fill="#9A113B" d="M79.652,200.674c0,11.252-9.124,20.376-20.371,20.376
					c-11.254,0-20.378-9.124-20.378-20.376c0-11.257,9.124-20.373,20.378-20.373C70.528,180.301,79.652,189.417,79.652,200.674z"/>
				<path clip-path="url(#SVGID_11_)" fill="#9B113B" d="M79.064,200.674c0,10.926-8.859,19.781-19.783,19.781
					c-10.926,0-19.78-8.855-19.78-19.781c0-10.928,8.854-19.783,19.78-19.783C70.205,180.891,79.064,189.746,79.064,200.674z"/>
			</g>
		</g>
		<g>
			<path fill="none" d="M104.411,204.573c0,22.995,0,41.62-41.615,41.62c-22.983,0-48.646-24.441-48.646-47.428
				c0-22.98,27.132-43.607,50.114-43.607C87.252,155.158,104.411,181.6,104.411,204.573z"/>
		</g>
		<g>
			<path fill="none" d="M104.411,204.573c0,22.995,0,41.62-41.615,41.62c-22.983,0-48.646-24.441-48.646-47.428
				c0-22.98,27.132-43.607,50.114-43.607C87.252,155.158,104.411,181.6,104.411,204.573z"/>
		</g>
		<g>
			<path fill="#6F003A" d="M97.416,162.021c0,5.252,0,9.496-9.501,9.496c-5.241,0-11.1-5.572-11.1-10.82
				c0-5.247,6.191-9.959,11.44-9.959C93.502,150.738,97.416,156.778,97.416,162.021z"/>
		</g>
		<g>
			<path fill="none" d="M71.206,156.807c-6.514-0.338-7.428,13.682,1.471,13.969C77.939,167.644,76.087,157.068,71.206,156.807z"/>
			<path fill="none" d="M86.633,170.031c5.984-2.458,4.654-14.484-0.735-14.689C79.441,155.098,79.12,168.582,86.633,170.031z"/>
			<path fill="#DC9116" d="M80.022,183.254c15.171-10.258,21.298,18.605,35.996,16.893c7.47-0.855,10.256-9.757,8.812-19.098
				c-2.414-15.715-19.863-28.777-29.388-33.791c2.896-0.532,5.587-1.263,8.086-2.193c2.351-4.512,4.223-9.492,4.414-16.17
				c-12.227-0.228-18.542,5.457-20.576,15.424c-2.114-0.819-5.721-0.143-7.344-1.465c1.2-6.391,1.751-13.432,1.466-21.305
				c-2.702-0.24-6.499,0.624-8.079-0.732c-0.234,7.42,2.08,15.915,0,22.768c-2.955-0.504-4.194,0.709-6.61,0.734
				c-3.05-5.27-6.64-10.008-8.813-16.162c-3.856,0.799-6.292,3.026-8.824,5.139c4.939,4.375,7.825,10.789,12.488,15.438
				c-2.378,1.528-2.46,5.372-4.399,7.343c-4.979-7.064-20.569-7.279-26.447-0.734c5.87,6.129,16.121,13.273,26.447,6.607
				c-1.737,21.707-4.604,55.197-6.918,82.023c4.131,1.422,8.342,2.221,12.464,2.221c1.771,0,3.466-0.051,5.13-0.133
				C68.686,222.893,69.817,190.157,80.022,183.254z M85.897,155.342c5.39,0.205,6.72,12.231,0.735,14.689
				C79.12,168.582,79.441,155.098,85.897,155.342z M72.677,170.775c-8.898-0.287-7.984-14.307-1.471-13.969
				C76.087,157.068,77.939,167.644,72.677,170.775z"/>
		</g>
	</g>
</g>
</svg>
